<?xml version="1.0" encoding="UTF-8" standalone="no"?>
<svg
   xmlns:dc="http://purl.org/dc/elements/1.1/"
   xmlns:cc="http://creativecommons.org/ns#"
   xmlns:rdf="http://www.w3.org/1999/02/22-rdf-syntax-ns#"
   xmlns:svg="http://www.w3.org/2000/svg"
   xmlns="http://www.w3.org/2000/svg"
   xmlns:sodipodi="http://sodipodi.sourceforge.net/DTD/sodipodi-0.dtd"
   xmlns:inkscape="http://www.inkscape.org/namespaces/inkscape"
   width="512"
   height="256"
   id="svg2"
   version="1.0"
   sodipodi:docname="estrela.svg"
   inkscape:version="0.92.4 (5da689c313, 2019-01-14)"
   inkscape:export-filename="/mnt/sda3/trabalhos/programacao/csharp/unity3d/experiencias/Y_maktub_arrumar/MaktubNg1/MaktubNg_a16_faltamovercometasescore/Assets/Sprites/estrela.png"
   inkscape:export-xdpi="96"
   inkscape:export-ydpi="96">
  <metadata
     id="metadata9">
    <rdf:RDF>
      <cc:Work
         rdf:about="">
        <dc:format>image/svg+xml</dc:format>
        <dc:type
           rdf:resource="http://purl.org/dc/dcmitype/StillImage" />
        <dc:title />
      </cc:Work>
    </rdf:RDF>
  </metadata>
  <defs
     id="defs7" />
  <sodipodi:namedview
     pagecolor="#ffffff"
     bordercolor="#666666"
     borderopacity="1"
     objecttolerance="10"
     gridtolerance="10"
     guidetolerance="10"
     inkscape:pageopacity="0"
     inkscape:pageshadow="2"
     inkscape:window-width="1914"
     inkscape:window-height="1168"
     id="namedview5"
     showgrid="true"
     inkscape:zoom="1.3037281"
     inkscape:cx="99.983704"
     inkscape:cy="96.083587"
     inkscape:window-x="0"
     inkscape:window-y="26"
     inkscape:window-maximized="0"
     inkscape:current-layer="svg2"
     inkscape:snap-global="false">
    <inkscape:grid
       type="xygrid"
       id="grid11"
       spacingx="64"
       spacingy="64"
       empspacing="8"
       empcolor="#3f3fff"
       empopacity="0.9254902"
       color="#3f3fff"
       opacity="0.48627451" />
  </sodipodi:namedview>
  <path
     sodipodi:type="star"
     style="opacity:1;fill:#f1ff00;fill-opacity:1;stroke:none;stroke-width:30;stroke-linecap:square;stroke-linejoin:bevel;stroke-miterlimit:4;stroke-dasharray:none;stroke-opacity:1"
     id="path3716"
     sodipodi:sides="5"
     sodipodi:cx="65.197639"
     sodipodi:cy="65.392776"
     sodipodi:r1="63.070526"
     sodipodi:r2="31.535263"
     sodipodi:arg1="0.669043"
     sodipodi:arg2="1.2973615"
     inkscape:flatsided="false"
     inkscape:rounded="0"
     inkscape:randomized="0"
     d="M 114.67114,104.51136 73.71343,95.756474 43.281808,124.53318 38.951571,82.874673 2.1794068,62.824973 40.460887,45.833485 48.166061,4.6653807 76.155554,35.822573 117.68978,30.428986 96.706756,66.676677 Z"
     inkscape:transform-center-x="5.2630473"
     inkscape:transform-center-y="-0.79349499" />
  <path
     inkscape:transform-center-y="-2.3046018"
     inkscape:transform-center-x="3.7886399"
     d="m 245.06643,104.51136 -40.95771,-8.754886 -30.43163,28.776706 -4.33023,-41.658507 -36.77217,-20.0497 38.28148,-16.991488 7.70518,-41.1681043 27.98949,31.1571923 41.53422,-5.393587 -20.98302,36.247691 z"
     inkscape:randomized="0"
     inkscape:rounded="0"
     inkscape:flatsided="false"
     sodipodi:arg2="1.2973615"
     sodipodi:arg1="0.669043"
     sodipodi:r2="31.535263"
     sodipodi:r1="63.070526"
     sodipodi:cy="65.392776"
     sodipodi:cx="195.59293"
     sodipodi:sides="5"
     id="path3718"
     style="opacity:1;fill:#f1ff00;fill-opacity:1;stroke:none;stroke-width:30;stroke-linecap:square;stroke-linejoin:bevel;stroke-miterlimit:4;stroke-dasharray:none;stroke-opacity:1"
     sodipodi:type="star"
     transform="rotate(4.4575536,195.59293,65.392776)" />
  <path
     transform="rotate(4.4575536,321.38603,3297.5594)"
     sodipodi:type="star"
     style="opacity:1;fill:#f1ff00;fill-opacity:1;stroke:none;stroke-width:30;stroke-linecap:square;stroke-linejoin:bevel;stroke-miterlimit:4;stroke-dasharray:none;stroke-opacity:1"
     id="path3720"
     sodipodi:sides="5"
     sodipodi:cx="195.59293"
     sodipodi:cy="65.392776"
     sodipodi:r1="63.070526"
     sodipodi:r2="31.535263"
     sodipodi:arg1="0.669043"
     sodipodi:arg2="1.2973615"
     inkscape:flatsided="false"
     inkscape:rounded="0"
     inkscape:randomized="0"
     d="m 245.06643,104.51136 -40.95771,-8.754886 -30.43163,28.776706 -4.33023,-41.658507 -36.77217,-20.0497 38.28148,-16.991488 7.70518,-41.1681043 27.98949,31.1571923 41.53422,-5.393587 -20.98302,36.247691 z"
     inkscape:transform-center-x="3.7886399"
     inkscape:transform-center-y="-2.3046018" />
  <path
     transform="rotate(11.172027,258.87299,712.39903)"
     sodipodi:type="star"
     style="opacity:1;fill:#f1ff00;fill-opacity:1;stroke:none;stroke-width:30;stroke-linecap:square;stroke-linejoin:bevel;stroke-miterlimit:4;stroke-dasharray:none;stroke-opacity:1"
     id="path3722"
     sodipodi:sides="5"
     sodipodi:cx="195.59293"
     sodipodi:cy="65.392776"
     sodipodi:r1="63.070526"
     sodipodi:r2="31.535263"
     sodipodi:arg1="0.669043"
     sodipodi:arg2="1.2973615"
     inkscape:flatsided="false"
     inkscape:rounded="0"
     inkscape:randomized="0"
     d="m 245.06643,104.51136 -40.95771,-8.754886 -30.43163,28.776706 -4.33023,-41.658507 -36.77217,-20.0497 38.28148,-16.991488 7.70518,-41.1681043 27.98949,31.1571923 41.53422,-5.393587 -20.98302,36.247691 z"
     inkscape:transform-center-x="1.5273393"
     inkscape:transform-center-y="-4.5515944" />
  <path
     inkscape:transform-center-y="-0.37449206"
     inkscape:transform-center-x="2.483914"
     d="m 85.951545,212.49677 -19.330146,-4.1319 -14.362316,13.58127 -2.043672,-19.66089 -17.354759,-9.46253 18.067087,-8.01919 3.636485,-19.42944 13.209745,14.70475 19.602231,-2.54552 -9.903015,17.10723 z"
     inkscape:randomized="0"
     inkscape:rounded="0"
     inkscape:flatsided="false"
     sodipodi:arg2="1.2973615"
     sodipodi:arg1="0.669043"
     sodipodi:r2="14.883184"
     sodipodi:r1="29.766369"
     sodipodi:cy="194.0346"
     sodipodi:cx="62.602339"
     sodipodi:sides="5"
     id="path3724"
     style="opacity:1;fill:#222222;fill-opacity:1;stroke:none;stroke-width:14.15861034;stroke-linecap:square;stroke-linejoin:bevel;stroke-miterlimit:4;stroke-dasharray:none;stroke-opacity:1"
     sodipodi:type="star" />
  <path
     transform="matrix(0.47052614,0.03668049,-0.03668049,0.47052614,101.46201,156.09114)"
     sodipodi:type="star"
     style="opacity:1;fill:#222222;fill-opacity:1;stroke:none;stroke-width:30;stroke-linecap:square;stroke-linejoin:bevel;stroke-miterlimit:4;stroke-dasharray:none;stroke-opacity:1"
     id="path3726"
     sodipodi:sides="5"
     sodipodi:cx="195.59293"
     sodipodi:cy="65.392776"
     sodipodi:r1="63.070526"
     sodipodi:r2="31.535263"
     sodipodi:arg1="0.669043"
     sodipodi:arg2="1.2973615"
     inkscape:flatsided="false"
     inkscape:rounded="0"
     inkscape:randomized="0"
     d="m 245.06643,104.51136 -40.95771,-8.754886 -30.43163,28.776706 -4.33023,-41.658507 -36.77217,-20.0497 38.28148,-16.991488 7.70518,-41.1681043 27.98949,31.1571923 41.53422,-5.393587 -20.98302,36.247691 z"
     inkscape:transform-center-x="1.7880613"
     inkscape:transform-center-y="-1.0876657" />
  <path
     inkscape:transform-center-y="-1.0876657"
     inkscape:transform-center-x="1.7880647"
     d="m 245.06643,104.51136 -40.95771,-8.754886 -30.43163,28.776706 -4.33023,-41.658507 -36.77217,-20.0497 38.28148,-16.991488 7.70518,-41.1681043 27.98949,31.1571923 41.53422,-5.393587 -20.98302,36.247691 z"
     inkscape:randomized="0"
     inkscape:rounded="0"
     inkscape:flatsided="false"
     sodipodi:arg2="1.2973615"
     sodipodi:arg1="0.669043"
     sodipodi:r2="31.535263"
     sodipodi:r1="63.070526"
     sodipodi:cy="65.392776"
     sodipodi:cx="195.59293"
     sodipodi:sides="5"
     id="path3728"
     style="opacity:1;fill:#222222;fill-opacity:1;stroke:none;stroke-width:30;stroke-linecap:square;stroke-linejoin:bevel;stroke-miterlimit:4;stroke-dasharray:none;stroke-opacity:1"
     sodipodi:type="star"
     transform="matrix(0.47052614,0.03668049,-0.03668049,0.47052614,356.91095,156.09114)" />
  <path
     inkscape:transform-center-y="-2.148144"
     inkscape:transform-center-x="0.72083806"
     d="m 245.06643,104.51136 -40.95771,-8.754886 -30.43163,28.776706 -4.33023,-41.658507 -36.77217,-20.0497 38.28148,-16.991488 7.70518,-41.1681043 27.98949,31.1571923 41.53422,-5.393587 -20.98302,36.247691 z"
     inkscape:randomized="0"
     inkscape:rounded="0"
     inkscape:flatsided="false"
     sodipodi:arg2="1.2973615"
     sodipodi:arg1="0.669043"
     sodipodi:r2="31.535263"
     sodipodi:r1="63.070526"
     sodipodi:cy="65.392776"
     sodipodi:cx="195.59293"
     sodipodi:sides="5"
     id="path3730"
     style="opacity:1;fill:#222222;fill-opacity:1;stroke:none;stroke-width:30;stroke-linecap:square;stroke-linejoin:bevel;stroke-miterlimit:4;stroke-dasharray:none;stroke-opacity:1"
     sodipodi:type="star"
     transform="matrix(0.46301012,0.09144358,-0.09144358,0.46301012,234.48362,145.87136)" />
</svg>
